{
    "chartName": "Chart 4",
    "chartType": "column",
    "series": [
        {
            "name": "Series One",
            "data": [
                ["Point 1", 3],
                ["Point 2", 5],
                ["Point 3", 8],
                ["Point 4", 12],
                ["Point 5", 15],
                ["Point 6", 10],
                ["Point 7", 5],
                ["Point 8", 3]
            ]
        }
    ],
    "xAxis": {
        "categories": ["Point 1", "Point 2", "Point 3", "Point 4", "Point 5", "Point 6", "Point 7", "Point 8"],
        "title": { "text": "Some Values" }
    },
    "yAxis": {
        "title": { "text": "Some Numbers" }
    }
}